101 12312312312311323122107021312A094101asdsad                 asdasdas                       
5200asdasdas                            1232131231PPD          210702191115   1123213210000001
6220NON ACH01                0000120000NON ACH        ARDAMNS GOURMET COFFEE  0123213210000001
6220NON ACH01                0000084000NON ACH        DANS DONUT SHOP         0123213210000002
820000000200000000000000000000000000002040001232131231                         123213210000001
9000001000001000000020000000000000000000000000000204000                                       
9999999999999999999999999999999999999999999999999999999999999999999999999999999999999999999999
9999999999999999999999999999999999999999999999999999999999999999999999999999999999999999999999
9999999999999999999999999999999999999999999999999999999999999999999999999999999999999999999999
9999999999999999999999999999999999999999999999999999999999999999999999999999999999999999999999
